Homework 5: EDA Practice
…
Missing Values

sum_na <- function(column) {
  sum(is.na(column))
}

na_counts <- student_combined |>
  summarize(across(everything(), sum_na)) |>
  pivot_longer(cols = everything(), names_to = "Variable", values_to = "count")

na_counts

# A tibble: 42 × 2
   Variable count
   <chr>    <int>
 1 school       0
 2 sex          0
 3 age          0
 4 address      0
 5 famsize      0
 6 Pstatus      0
 7 Medu         0
 8 Fedu         0
 9 Mjob         0
10 Fjob         0
# ℹ 32 more rows
…
